{
  "project_info": {
    "project_number": "117996638630",
    "firebase_url": "https://loginfirebase-ce9a9.firebaseio.com",
    "project_id": "loginfirebase-ce9a9",
    "storage_bucket": "loginfirebase-ce9a9.appspot.com"
  },
  "client": [
    {
      "client_info": {
        "mobilesdk_app_id": "1:117996638630:android:8eab8ca7d57d2080",
        "android_client_info": {
          "package_name": "com.example.mruzbek.loginfirebase"
        }
      },
      "oauth_client": [
        {
          "client_id": "117996638630-eaiubof7pk7s0hl4s9dool074bujra9f.apps.googleusercontent.com",
          "client_type": 1,
          "android_info": {
            "package_name": "com.example.mruzbek.loginfirebase",
            "certificate_hash": "bc28bac2a31ebd41b517579a14e785d7e210a063"
          }
        },
        {
          "client_id": "117996638630-bqjkci2i7q3vkvo4g5tbtq53to981fkk.apps.googleusercontent.com",
          "client_type": 3
        }
      ],
      "api_key": [
        {
          "current_key": "AIzaSyADstzHQD-iLuksN_6QU25GP6V9fIrn31E"
        }
      ],
      "services": {
        "analytics_service": {
          "status": 1
        },
        "appinvite_service": {
          "status": 2,
          "other_platform_oauth_client": [
            {
              "client_id": "117996638630-bqjkci2i7q3vkvo4g5tbtq53to981fkk.apps.googleusercontent.com",
              "client_type": 3
            }
          ]
        },
        "ads_service": {
          "status": 2
        }
      }
    }
  ],
  "configuration_version": "1"
}